GeneID	logFC	pValue
ENSMUSG00000069227	-4.330099006	3.10E-11
ENSMUSG00000050917	-3.192768208	0.000859621
ENSMUSG00000035776	-2.829493483	4.78E-10
ENSMUSG00000048482	-2.495792289	2.29E-07
ENSMUSG00000046814	-2.208498732	2.51E-10
ENSMUSG00000023046	-2.117626822	7.19E-06
ENSMUSG00000002228	-2.064756267	1.41E-08
ENSMUSG00000047146	-1.869096375	2.21E-06
ENSMUSG00000041958	-1.796547485	3.96E-06
ENSMUSG00000059555	-1.724438079	2.25E-05
ENSMUSG00000040138	-1.659829948	0.000875791
ENSMUSG00000071112	-1.646885289	7.94E-06
ENSMUSG00000020953	-1.637484586	1.31E-06
ENSMUSG00000037225	-1.624334843	0.000122068
ENSMUSG00000022661	-1.58359782	0.000134175
ENSMUSG00000051811	-1.580843103	8.23E-06
ENSMUSG00000032845	-1.503580823	9.60E-08
ENSMUSG00000032717	-1.495089821	1.60E-08
ENSMUSG00000025213	-1.482334923	0.001935747
ENSMUSG00000020059	-1.450849052	0.01664012
ENSMUSG00000026204	-1.42652676	0.001916337
ENSMUSG00000025510	-1.393051111	9.47E-05
ENSMUSG00000054932	-1.390472334	0.000177689
ENSMUSG00000018102	-1.295917499	0.147571333
ENSMUSG00000006403	-1.283186044	1.34E-05
ENSMUSG00000033152	-1.267694947	0.004659015
ENSMUSG00000072812	-1.227529638	0.001082931
ENSMUSG00000034591	-1.199633172	0.000191122
ENSMUSG00000031907	-1.16070901	0.00182989
ENSMUSG00000022040	-1.156345392	0.000521469
ENSMUSG00000094002	-1.141267676	0.012437928
ENSMUSG00000038685	-1.138891814	0.000215204
ENSMUSG00000049148	-1.115084729	0.012035082
ENSMUSG00000026986	-1.10091265	0.014701045
ENSMUSG00000054893	-1.092032526	0.016051813
ENSMUSG00000045034	-1.083485984	0.002733265
ENSMUSG00000036782	-1.077983247	0.004364751
ENSMUSG00000050022	-1.075661192	7.88E-05
ENSMUSG00000030310	-1.071108401	0.000834248
ENSMUSG00000031673	-1.070027699	0.043320523
ENSMUSG00000020937	-1.034612916	9.57E-05
ENSMUSG00000022376	-1.032200601	0.022550186
ENSMUSG00000054855	-1.029491981	0.019671342
ENSMUSG00000033792	-1.017682541	0.023476707
ENSMUSG00000027955	-1.011322731	0.002094232
ENSMUSG00000020427	-1.010672532	0.001836289
ENSMUSG00000029211	-1.009216693	0.001419981
ENSMUSG00000042042	1.015823955	0.00147861
ENSMUSG00000036111	1.064492188	0.000506954
ENSMUSG00000054364	1.092397232	0.04639152
ENSMUSG00000034845	1.093905906	0.073011581
ENSMUSG00000028121	1.094378833	0.002298966
ENSMUSG00000031202	1.096248328	0.000577777
ENSMUSG00000021758	1.135923897	0.06041942
ENSMUSG00000039037	1.16294548	0.001468504
ENSMUSG00000046997	1.211533862	2.91E-05
ENSMUSG00000042557	1.2245313	0.004217678
ENSMUSG00000016386	1.232178633	5.42E-05
ENSMUSG00000043518	1.282568644	0.00013663
ENSMUSG00000029086	1.399930372	6.55E-06
ENSMUSG00000060703	1.611293889	2.39E-07
ENSMUSG00000046922	1.661904227	0.000127843
ENSMUSG00000070880	1.806897563	2.51E-05
ENSMUSG00000071637	1.852111414	0.001689144
ENSMUSG00000095139	2.067068005	1.88E-05
